{
	"channels": [
		{
			"id": "whatsapp",
			"name": "Whatsapp",
			"icon": "fab fa-whatsapp"
		},
		{
			"id": "chat",
			"name": "Webchat",
			"icon": "fas fa-comments"
		},
		{
			"id": "web",
			"name": "Formulário web",
			"icon": "fas fa-window-maximize"
		},
		{
			"id": "twitter",
			"name": "Twitter",
			"icon": "fab fa-twitter"
		},
		{
			"id": "email",
			"name": "E-mail",
			"icon": "fas fa-envelope"
		},
		{
			"id": "phone",
			"name": "Telefone",
			"icon": "flaticon-computer"
		},
		{
			"id": "sms",
			"name": "Telefone",
			"icon": "fas fa-sms"
		}
	],
	"interactions": [
		{
			"id": "de41c1c4-79b8-11e9-8f9e-2a86e4085a59",
			"date": "2019-05-20T18:12:22",
			"description": "<i>Vivamus suscipit leo aliquam velit lacinia pharetra. Nullam sed arcu id neque consequat varius nec malesuada nibh.</i>",
			"stressLevel": "1",
			"direction": "in",
			"channel": "sms",
			"actionType": "attention",
			"actionDescription": "Atenção",
			"actionIcon": "fas fa-exclamation-triangle",
			"source": {
				"id": "lemondesk",
				"label": "Lemon Desk",
				"icon": "img/lemondesk.png"
			}
		},
		{
			"id": "fe41c1c4-79b8-11e9-8f9e-2a86e4085a59",
			"date": "2019-05-21T19:33:22",
			"description": "Praesent placerat erat porta, <b>placerat</b> dolor ac, laoreet nunc.",
			"stressLevel": "0",
			"direction": "out",
			"channel": "phone",
			"actionType": "survey",
			"actionDescription": "Pesquisa de satisfação",
			"actionIcon": "fas fa-star",
			"source": {
				"id": "limesales",
				"label": "Lime Sales",
				"icon": "img/limesales.png"
			}
		},
		{
			"id": "ge41c1c4-79b8-11e9-8f9e-2a86e4085a59",
			"date": "2019-05-15T13:33:22",
			"description": "<p>SMS de cobrança. Fatura em aberto<p>",
			"stressLevel": "-1",
			"direction": "out",
			"channel": "whatsapp",
			"source": {
				"id": "citricbrain",
				"label": "Citric Brain",
				"icon": "img/citricbrain.png"
			}
		},
		{
			"id": "he41c1c4-79b8-11e9-8f9e-2a86e4085a59",
			"date": "2019-05-15T13:33:22",
			"description": "Aliquam pellentesque mi id orci porta imperdiet. Aliquam erat volutpat.",
			"stressLevel": 0,
			"direction": "out",
			"channel": "chat",
			"source": {
				"id": "pomeloflow",
				"label": "Pomelo Flow",
				"icon": "img/pomeloflow.png"
			}
		},
		{
			"id": "ie41c1c4-79b8-11e9-8f9e-2a86e4085a59",
			"date": "2019-05-17T15:19:22",
			"description": "<p>Curabitur aliquam, dolor eget bibendum fermentum, mauris urna dictum diam, <b>sed maximus justo</p> nisi vestibulum ex. Nulla nec pharetra ligula, sit amet luctus augue.</p>",
			"stressLevel": -1,
			"direction": "in",
			"channel": "twitter",
			"source": {
				"id": "tangymetrics",
				"label": "Tangy Metrics",
				"icon": "img/tangymetrics.png"
			}
		},
		{
			"id": "je41c1c4-79b8-11e9-8f9e-2a86e4085a59",
			"date": "2019-05-17T15:20:22",
			"description": "Phasellus scelerisque lobortis sapien, et tempus magna egestas quis. Duis vitae rhoncus enim.",
			"stressLevel": 0,
			"direction": "in",
			"channel": "sms",
			"source": {
				"id": "blossomsense",
				"label": "Blossom Sense",
				"icon": "img/blossomsense.png"
			}
		},
		{
			"id": "ke41c1c4-79b8-11e9-8f9e-2a86e4085a59",
			"date": "2019-05-16T14:43:22",
			"description": "<i>Cras faucibus ac nunc in dapibus. Pellentesque accumsan posuere aliquam. Donec elementum ullamcorper mauris, non lacinia orci interdum sit amet. </i>",
			"stressLevel": 1,
			"direction": "out",
			"channel": "email",
			"source": {
				"id": "pomeloflow",
				"label": "Pomelo Flow",
				"icon": "img/pomeloflow.png"
			}
		},
		{
			"id": "le41c1c4-79b8-11e9-8f9e-2a86e4085a59",
			"date": "2019-05-18T16:59:22",
			"description": "<p>Nam dapibus et nisi at euismod. Aliquam pellentesque mi id orci porta imperdiet. Aliquam erat volutpat.</p>",
			"stressLevel": 0,
			"direction": "in",
			"channel": "phone",
			"source": {
				"id": "tangymetrics",
				"label": "Tangy Metrics",
				"icon": "img/tangymetrics.png"
			}
		},
		{
			"id": "me41c1c4-79b8-11e9-8f9e-2a86e4085a59",
			"date": "2019-05-18T17:59:22",
			"description": "Cras faucibus ac nunc in dapibus.",
			"stressLevel": -1,
			"direction": "in",
			"channel": "sms",
			"source": {
				"id": "pomeloflow",
				"label": "Pomelo Flow",
				"icon": "img/pomeloflow.png"
			}
		},
		{
			"id": "oe41c1c4-79b8-11e9-8f9e-2a86e4085a59",
			"date": "2019-05-19T17:15:22",
			"description": "<p>Phasellus pretium, libero et mattis tincidunt, velit ipsum laoreet metus, ac feugiat purus magna sed ligula.</p>",
			"stressLevel": 1,
			"direction": "whatsapp",
			"channel": "whatsapp",
			"source": {
				"id": "lemondesk",
				"label": "Lemon Desk",
				"icon": "img/lemondesk.png"
			}
		}
	]
}
